%YAML 1.1
%TAG !u! tag:unity3d.com,2011:
--- !u!1045 &1
EditorBuildSettings:
  m_ObjectHideFlags: 0
  serializedVersion: 2
  m_Scenes:
  - enabled: 1
    path: Assets/Scenes/MenuPrincipal.unity
    guid: 77f2c72b42720bc428d97ddaced04b8c
  - enabled: 1
    path: Assets/Scenes/SampleScene.unity
    guid: 8c9cfa26abfee488c85f1582747f6a02
  m_configObjects: {}
